Engine\Binaries\Win64\CrashReportClient.exe	2017-01-24T12:20:14.170Z
Invaders\Binaries\Win64\Invaders.exe	2017-01-24T12:14:51.836Z
Invaders.exe	2017-01-24T12:48:54.169Z
Engine\Extras\Redist\en-us\UE4PrereqSetup_x64.exe	2016-10-01T11:36:42.434Z
Engine\Binaries\ThirdParty\PhysX\PhysX-3.3\Win64\VS2015\PhysX3PROFILE_x64.dll	2016-10-01T11:36:38.636Z
Engine\Binaries\ThirdParty\PhysX\PhysX-3.3\Win64\VS2015\PhysX3CommonPROFILE_x64.dll	2016-10-01T11:32:23.862Z
Engine\Binaries\ThirdParty\PhysX\PhysX-3.3\Win64\VS2015\PhysX3CookingPROFILE_x64.dll	2016-10-01T11:34:24.938Z
Engine\Binaries\ThirdParty\PhysX\PhysX-3.3\Win64\VS2015\nvToolsExt64_1.dll	2016-10-01T11:36:49.572Z
Engine\Binaries\ThirdParty\PhysX\APEX-1.3\Win64\VS2015\APEX_ClothingPROFILE_x64.dll	2016-10-01T11:32:58.415Z
Engine\Binaries\ThirdParty\PhysX\APEX-1.3\Win64\VS2015\APEX_DestructiblePROFILE_x64.dll	2016-10-01T11:35:56.275Z
Engine\Binaries\ThirdParty\PhysX\APEX-1.3\Win64\VS2015\APEX_LegacyPROFILE_x64.dll	2016-10-01T11:34:50.931Z
Engine\Binaries\ThirdParty\PhysX\APEX-1.3\Win64\VS2015\ApexFrameworkPROFILE_x64.dll	2016-10-01T11:32:45.539Z
Engine\Binaries\ThirdParty\Ogg\Win64\VS2015\libogg_64.dll	2016-10-01T11:35:04.921Z
Engine\Binaries\ThirdParty\Vorbis\Win64\VS2015\libvorbis_64.dll	2016-10-01T11:41:05.054Z
Engine\Binaries\ThirdParty\Vorbis\Win64\VS2015\libvorbisfile_64.dll	2016-10-01T11:35:04.986Z
Engine\Binaries\ThirdParty\OpenVR\OpenVRv0_9_12\Win64\openvr_api.dll	2016-10-01T11:43:03.413Z
Engine\Build\Build.version	2016-10-04T22:18:34.834Z
Engine\Content\Slate\Checkerboard.png	2016-10-01T11:41:33.389Z
Engine\Content\Slate\Common\BoxShadow.png	2016-10-01T11:43:18.493Z
Engine\Content\Slate\Common\Button.png	2016-10-01T11:34:14.584Z
Engine\Content\Slate\Common\Button_Disabled.png	2016-10-01T11:41:33.395Z
Engine\Content\Slate\Common\Button_Hovered.png	2016-10-01T11:41:33.399Z
Engine\Content\Slate\Common\Button_Pressed.png	2016-10-01T11:41:33.402Z
Engine\Content\Slate\Common\Check.png	2016-10-01T11:41:33.415Z
Engine\Content\Slate\Common\CheckBox.png	2016-10-01T11:41:33.418Z
Engine\Content\Slate\Common\CheckBox_Checked.png	2016-10-01T11:41:33.421Z
Engine\Content\Slate\Common\CheckBox_Checked_Hovered.png	2016-10-01T11:41:33.424Z
Engine\Content\Slate\Common\CheckBox_Hovered.png	2016-10-01T11:41:33.427Z
Engine\Content\Slate\Common\CheckBox_Undetermined.png	2016-10-01T11:41:33.431Z
Engine\Content\Slate\Common\CheckBox_Undetermined_Hovered.png	2016-10-01T11:41:33.434Z
Engine\Content\Slate\Common\Checker.png	2016-10-01T11:33:14.102Z
Engine\Content\Slate\Common\Circle.png	2016-10-01T11:42:49.804Z
Engine\Content\Slate\Common\ColorPicker_Mode_16x.png	2016-10-01T11:39:01.382Z
Engine\Content\Slate\Common\ColorPicker_Separator.png	2016-10-01T11:33:24.879Z
Engine\Content\Slate\Common\ColorPicker_SliderHandle.png	2016-10-01T11:33:24.881Z
Engine\Content\Slate\Common\ColorSpectrum.png	2016-10-01T11:38:00.259Z
Engine\Content\Slate\Common\ColorWheel.png	2016-10-01T11:42:49.813Z
Engine\Content\Slate\Common\ColumnHeader.png	2016-10-01T11:41:33.438Z
Engine\Content\Slate\Common\ColumnHeaderMenuButton_Hovered.png	2016-10-01T11:35:55.075Z
Engine\Content\Slate\Common\ColumnHeaderMenuButton_Normal.png	2016-10-01T11:39:54.575Z
Engine\Content\Slate\Common\ColumnHeader_Arrow.png	2016-10-01T11:33:36.008Z
Engine\Content\Slate\Common\ColumnHeader_Hovered.png	2016-10-01T11:41:33.442Z
Engine\Content\Slate\Common\ComboArrow.png	2016-10-01T11:41:33.449Z
Engine\Content\Slate\Common\CursorPing.png	2016-10-01T11:40:08.200Z
Engine\Content\Slate\Common\DebugBorder.PNG	2016-10-01T11:42:49.821Z
Engine\Content\Slate\Common\Delimiter.png	2016-10-01T11:41:33.460Z
Engine\Content\Slate\Common\DownArrow.png	2016-10-01T11:41:33.449Z
Engine\Content\Slate\Common\DropZoneIndicator_Above.png	2016-10-01T11:40:16.092Z
Engine\Content\Slate\Common\DropZoneIndicator_Below.png	2016-10-01T11:40:16.137Z
Engine\Content\Slate\Common\DropZoneIndicator_Onto.png	2016-10-01T11:40:16.145Z
Engine\Content\Slate\Common\EditableTextSelectionBackground.png	2016-10-01T11:41:33.464Z
Engine\Content\Slate\Common\EventMessage_Default.png	2016-10-01T11:42:49.869Z
Engine\Content\Slate\Common\ExpansionButton_CloseOverlay.png	2016-10-01T11:42:49.872Z
Engine\Content\Slate\Common\GroupBorder.png	2016-10-01T11:41:33.473Z
Engine\Content\Slate\Common\HeaderSplitterGrip.PNG	2016-10-01T11:41:33.481Z
Engine\Content\Slate\Common\LastColumnHeader_Hovered.png	2016-10-01T11:41:33.496Z
Engine\Content\Slate\Common\NoiseBackground.png	2016-10-01T11:41:33.507Z
Engine\Content\Slate\Common\ProgressBar_Background.png	2016-10-01T11:41:33.511Z
Engine\Content\Slate\Common\ProgressBar_Fill.png	2016-10-01T11:41:33.516Z
Engine\Content\Slate\Common\ProgressBar_Marquee.PNG	2016-10-01T11:41:33.519Z
Engine\Content\Slate\Common\RadioButton_SelectedBack_16x.png	2016-10-01T11:41:33.530Z
Engine\Content\Slate\Common\RadioButton_Selected_16x.png	2016-10-01T11:41:33.528Z
Engine\Content\Slate\Common\RadioButton_Unselected_16x.png	2016-10-01T11:35:55.077Z
Engine\Content\Slate\Common\RoundedSelection_16x.PNG	2016-10-01T11:41:33.540Z
Engine\Content\Slate\Common\Scrollbar_Background_Horizontal.png	2016-10-01T11:41:33.544Z
Engine\Content\Slate\Common\Scrollbar_Background_Vertical.png	2016-10-01T11:41:33.547Z
Engine\Content\Slate\Common\Scrollbar_Thumb.png	2016-10-01T11:41:33.549Z
Engine\Content\Slate\Common\ScrollBorderShadowBottom.png	2016-10-01T11:39:01.384Z
Engine\Content\Slate\Common\ScrollBorderShadowTop.png	2016-10-01T11:39:54.577Z
Engine\Content\Slate\Common\ScrollBoxShadowBottom.png	2016-10-01T11:39:01.385Z
Engine\Content\Slate\Common\ScrollBoxShadowLeft.png	2016-10-01T11:39:54.578Z
Engine\Content\Slate\Common\ScrollBoxShadowRight.png	2016-10-01T11:39:54.580Z
Engine\Content\Slate\Common\ScrollBoxShadowTop.png	2016-10-01T11:35:55.078Z
Engine\Content\Slate\Common\SearchGlass.PNG	2016-10-01T11:41:33.558Z
Engine\Content\Slate\Common\Selection.png	2016-10-01T11:41:33.561Z
Engine\Content\Slate\Common\Selector.png	2016-10-01T11:41:33.565Z
Engine\Content\Slate\Common\Separator.png	2016-10-01T11:41:33.567Z
Engine\Content\Slate\Common\SmallCheck.png	2016-10-01T11:41:33.577Z
Engine\Content\Slate\Common\SmallCheckBox.png	2016-10-01T11:41:33.580Z
Engine\Content\Slate\Common\SmallCheckBox_Checked.png	2016-10-01T11:41:33.583Z
Engine\Content\Slate\Common\SmallCheckBox_Checked_Hovered.png	2016-10-01T11:41:33.585Z
Engine\Content\Slate\Common\SmallCheckBox_Hovered.png	2016-10-01T11:41:33.588Z
Engine\Content\Slate\Common\SmallCheckBox_Undetermined.png	2016-10-01T11:41:33.591Z
Engine\Content\Slate\Common\SmallCheckBox_Undetermined_Hovered.png	2016-10-01T11:41:33.594Z
Engine\Content\Slate\Common\SortDownArrow.png	2016-10-01T11:41:33.612Z
Engine\Content\Slate\Common\SortDownArrows.png	2016-10-01T11:34:14.593Z
Engine\Content\Slate\Common\SortUpArrow.png	2016-10-01T11:41:33.616Z
Engine\Content\Slate\Common\SortUpArrows.png	2016-10-01T11:41:33.618Z
Engine\Content\Slate\Common\SpinArrows.png	2016-10-01T11:41:33.621Z
Engine\Content\Slate\Common\Spinbox.PNG	2016-10-01T11:41:33.624Z
Engine\Content\Slate\Common\Spinbox_Fill.png	2016-10-01T11:41:33.627Z
Engine\Content\Slate\Common\Spinbox_Fill_Hovered.png	2016-10-01T11:41:33.629Z
Engine\Content\Slate\Common\Spinbox_Hovered.png	2016-10-01T11:41:33.633Z
Engine\Content\Slate\Common\SplitterHandleHighlight.png	2016-10-01T11:41:33.635Z
Engine\Content\Slate\Common\SubmenuArrow.png	2016-10-01T11:41:33.638Z
Engine\Content\Slate\Common\TableViewHeader.png	2016-10-01T11:41:33.644Z
Engine\Content\Slate\Common\TableViewMajorColumn.png	2016-10-01T11:41:46.726Z
Engine\Content\Slate\Common\TextBlockHighlightShape.png	2016-10-01T11:41:33.651Z
Engine\Content\Slate\Common\TextBlockHighlightShape_Empty.png	2016-10-01T11:41:33.658Z
Engine\Content\Slate\Common\TextBox.png	2016-10-01T11:41:33.661Z
Engine\Content\Slate\Common\TextBoxLabelBorder.PNG	2016-10-01T11:41:33.689Z
Engine\Content\Slate\Common\TextBox_Hovered.png	2016-10-01T11:41:33.675Z
Engine\Content\Slate\Common\TextBox_ReadOnly.png	2016-10-01T11:41:33.679Z
Engine\Content\Slate\Common\TextBox_Special.png	2016-10-01T11:41:33.682Z
Engine\Content\Slate\Common\TextBox_Special_Hovered.png	2016-10-01T11:41:33.686Z
Engine\Content\Slate\Common\Throbber_Piece.png	2016-10-01T11:41:31.786Z
Engine\Content\Slate\Common\TreeArrow_Collapsed.png	2016-10-01T11:41:33.696Z
Engine\Content\Slate\Common\TreeArrow_Collapsed_Hovered.png	2016-10-01T11:41:33.699Z
Engine\Content\Slate\Common\TreeArrow_Expanded.png	2016-10-01T11:41:33.702Z
Engine\Content\Slate\Common\TreeArrow_Expanded_Hovered.png	2016-10-01T11:41:33.705Z
Engine\Content\Slate\Common\UpArrow.png	2016-10-01T11:41:33.720Z
Engine\Content\Slate\Common\VolumeControl_High.png	2016-10-01T11:41:33.727Z
Engine\Content\Slate\Common\VolumeControl_Low.png	2016-10-01T11:41:33.730Z
Engine\Content\Slate\Common\VolumeControl_Mid.png	2016-10-01T11:41:33.732Z
Engine\Content\Slate\Common\VolumeControl_Muted.png	2016-10-01T11:41:33.736Z
Engine\Content\Slate\Common\VolumeControl_Off.png	2016-10-01T11:41:33.740Z
Engine\Content\Slate\Common\X.PNG	2016-10-01T11:41:33.754Z
Engine\Content\Slate\Common\Window\WindowBackground.png	2016-10-01T11:41:31.821Z
Engine\Content\Slate\Common\Window\WindowBorder.png	2016-10-01T11:41:31.825Z
Engine\Content\Slate\Common\Window\WindowButton_Close_Hovered.png	2016-10-01T11:41:31.830Z
Engine\Content\Slate\Common\Window\WindowButton_Close_Normal.png	2016-10-01T11:41:31.834Z
Engine\Content\Slate\Common\Window\WindowButton_Close_Pressed.png	2016-10-01T11:41:31.837Z
Engine\Content\Slate\Common\Window\WindowButton_Maximize_Disabled.png	2016-10-01T11:41:31.843Z
Engine\Content\Slate\Common\Window\WindowButton_Maximize_Hovered.png	2016-10-01T11:41:31.846Z
Engine\Content\Slate\Common\Window\WindowButton_Maximize_Normal.png	2016-10-01T11:41:31.851Z
Engine\Content\Slate\Common\Window\WindowButton_Maximize_Pressed.png	2016-10-01T11:41:31.854Z
Engine\Content\Slate\Common\Window\WindowButton_Minimize_Disabled.png	2016-10-01T11:41:31.858Z
Engine\Content\Slate\Common\Window\WindowButton_Minimize_Hovered.png	2016-10-01T11:41:31.862Z
Engine\Content\Slate\Common\Window\WindowButton_Minimize_Normal.png	2016-10-01T11:41:31.866Z
Engine\Content\Slate\Common\Window\WindowButton_Minimize_Pressed.png	2016-10-01T11:41:31.869Z
Engine\Content\Slate\Common\Window\WindowButton_Restore_Hovered.png	2016-10-01T11:41:31.872Z
Engine\Content\Slate\Common\Window\WindowButton_Restore_Normal.png	2016-10-01T11:41:31.880Z
Engine\Content\Slate\Common\Window\WindowButton_Restore_Pressed.png	2016-10-01T11:41:31.888Z
Engine\Content\Slate\Common\Window\WindowOutline.png	2016-10-01T11:41:31.896Z
Engine\Content\Slate\Common\Window\WindowTitle.png	2016-10-01T11:41:31.902Z
Engine\Content\Slate\Common\Window\WindowTitle_Flashing.png	2016-10-01T11:41:31.905Z
Engine\Content\Slate\Common\Window\WindowTitle_Inactive.png	2016-10-01T11:41:31.909Z
Engine\Content\Slate\CrashTracker\MouseCursor.png	2016-10-01T11:33:36.012Z
Engine\Content\Slate\CrashTracker\Record.png	2016-10-01T11:40:16.760Z
Engine\Content\Slate\Docking\AppTabContentArea.png	2016-10-01T11:41:33.951Z
Engine\Content\Slate\Docking\AppTabWellSeparator.png	2016-10-01T11:41:33.989Z
Engine\Content\Slate\Docking\AppTab_Active.png	2016-10-01T11:41:33.836Z
Engine\Content\Slate\Docking\AppTab_ColorOverlay.png	2016-10-01T11:41:33.870Z
Engine\Content\Slate\Docking\AppTab_Foreground.png	2016-10-01T11:41:33.836Z
Engine\Content\Slate\Docking\AppTab_Hovered.png	2016-10-01T11:41:33.905Z
Engine\Content\Slate\Docking\AppTab_Inactive.png	2016-10-01T11:41:33.942Z
Engine\Content\Slate\Docking\CloseApp_Hovered.png	2016-10-01T11:41:33.999Z
Engine\Content\Slate\Docking\CloseApp_Normal.png	2016-10-01T11:41:34.009Z
Engine\Content\Slate\Docking\CloseApp_Pressed.png	2016-10-01T11:41:34.019Z
Engine\Content\Slate\Docking\DockingIndicator_Center.png	2016-10-01T11:41:34.026Z
Engine\Content\Slate\Docking\OuterDockingIndicator.png	2016-10-01T11:41:34.029Z
Engine\Content\Slate\Docking\ShowTabwellButton_Hovered.png	2016-10-01T11:41:34.033Z
Engine\Content\Slate\Docking\ShowTabwellButton_Normal.png	2016-10-01T11:41:34.037Z
Engine\Content\Slate\Docking\ShowTabwellButton_Pressed.png	2016-10-01T11:41:34.046Z
Engine\Content\Slate\Docking\TabContentArea.png	2016-10-01T11:41:34.080Z
Engine\Content\Slate\Docking\TabWellSeparator.png	2016-10-01T11:41:34.087Z
Engine\Content\Slate\Docking\Tab_Active.png	2016-10-01T11:41:34.053Z
Engine\Content\Slate\Docking\Tab_ColorOverlay.png	2016-10-01T11:41:34.057Z
Engine\Content\Slate\Docking\Tab_Foreground.png	2016-10-01T11:41:34.064Z
Engine\Content\Slate\Docking\Tab_Hovered.png	2016-10-01T11:41:34.068Z
Engine\Content\Slate\Docking\Tab_Inactive.png	2016-10-01T11:41:34.072Z
Engine\Content\Slate\Fonts\DroidSansFallback.ttf	2016-10-01T11:38:06.188Z
Engine\Content\Slate\Fonts\DroidSansMono.ttf	2016-10-01T11:41:34.100Z
Engine\Content\Slate\Fonts\Google_Android_License.txt	2016-10-04T22:21:47.915Z
Engine\Content\Slate\Fonts\Last Resort Font.tps	2016-10-04T22:20:14.635Z
Engine\Content\Slate\Fonts\LastResort.ttf	2016-10-01T11:39:37.794Z
Engine\Content\Slate\Fonts\Nanum Fonts License.rtf	2016-10-04T22:20:31.569Z
Engine\Content\Slate\Fonts\NanumGothic TTF.tps	2016-10-04T22:20:14.649Z
Engine\Content\Slate\Fonts\NanumGothic.ttf	2016-10-01T11:41:56.800Z
Engine\Content\Slate\Fonts\Noto.tps	2016-10-04T22:20:23.853Z
Engine\Content\Slate\Fonts\NotoNaskhArabicUI-Regular.ttf	2016-10-01T11:40:13.158Z
Engine\Content\Slate\Fonts\Roboto-Bold.ttf	2016-10-01T11:41:38.908Z
Engine\Content\Slate\Fonts\Roboto-Light.ttf	2016-10-01T11:36:22.598Z
Engine\Content\Slate\Fonts\Roboto-Regular.ttf	2016-10-01T11:36:22.631Z
Engine\Content\Slate\Fonts\Roboto.tps	2016-10-04T22:20:14.670Z
Engine\Content\Slate\Icons\BackIcon.png	2016-10-01T11:41:32.048Z
Engine\Content\Slate\Icons\Cross_12x.png	2016-10-01T11:36:29.059Z
Engine\Content\Slate\Icons\cursor_cardinal_cross.png	2016-10-01T11:35:12.076Z
Engine\Content\Slate\Icons\cursor_grab.png	2016-10-01T11:36:29.063Z
Engine\Content\Slate\Icons\DefaultAppIcon.png	2016-10-01T11:32:26.668Z
Engine\Content\Slate\Icons\denied_16x.png	2016-10-01T11:36:29.074Z
Engine\Content\Slate\Icons\ellipsis_12x.png	2016-10-01T11:36:29.088Z
Engine\Content\Slate\Icons\Empty_14x.png	2016-10-01T11:36:29.092Z
Engine\Content\Slate\Icons\eyedropper_16px.png	2016-10-01T11:36:29.169Z
Engine\Content\Slate\Icons\icon_Downloads_16x.png	2016-10-01T11:35:29.429Z
Engine\Content\Slate\Icons\icon_error_16x.png	2016-10-01T11:35:47.778Z
Engine\Content\Slate\Icons\icon_generic_toolbar.png	2016-10-01T11:41:57.760Z
Engine\Content\Slate\Icons\icon_help_16x.png	2016-10-01T11:35:29.811Z
Engine\Content\Slate\Icons\icon_info_16x.png	2016-10-01T11:35:29.827Z
Engine\Content\Slate\Icons\icon_redo_16px.png	2016-10-01T11:38:54.713Z
Engine\Content\Slate\Icons\icon_tab_toolbar_16px.png	2016-10-01T11:38:59.933Z
Engine\Content\Slate\Icons\icon_tab_WidgetReflector_16x.png	2016-10-01T11:35:55.079Z
Engine\Content\Slate\Icons\icon_tab_WidgetReflector_40x.png	2016-10-01T11:35:55.082Z
Engine\Content\Slate\Icons\icon_undo_16px.png	2016-10-01T11:43:11.632Z
Engine\Content\Slate\Icons\icon_warning_16x.png	2016-10-01T11:39:27.239Z
Engine\Content\Slate\Icons\NextIcon.png	2016-10-01T11:41:32.080Z
Engine\Content\Slate\Icons\notificationlist_fail.png	2016-10-01T11:41:31.719Z
Engine\Content\Slate\Icons\notificationlist_success.png	2016-10-01T11:33:14.092Z
Engine\Content\Slate\Icons\PlusSymbol_12x.png	2016-10-01T11:33:13.696Z
Engine\Content\Slate\Icons\toolbar_expand_16x.png	2016-10-01T11:33:13.839Z
Engine\Content\Slate\Icons\TrashCan.png	2016-10-01T11:41:31.799Z
Engine\Content\Slate\Icons\TrashCan_Small.png	2016-10-01T11:41:31.803Z
Engine\Content\Slate\MessageLog\Log_Error.png	2016-10-01T11:42:50.258Z
Engine\Content\Slate\MessageLog\Log_Note.png	2016-10-01T11:42:50.260Z
Engine\Content\Slate\MessageLog\Log_Warning.png	2016-10-01T11:40:36.737Z
Engine\Content\Slate\Old\Border.PNG	2016-10-01T11:33:14.079Z
Engine\Content\Slate\Old\Button.png	2016-10-01T11:33:14.082Z
Engine\Content\Slate\Old\DashedBorder.png	2016-10-01T11:42:49.818Z
Engine\Content\Slate\Old\HyperlinkDotted.png	2016-10-01T11:42:50.041Z
Engine\Content\Slate\Old\HyperlinkUnderline.png	2016-10-01T11:42:50.044Z
Engine\Content\Slate\Old\Menu_Background.png	2016-10-01T11:42:50.476Z
Engine\Content\Slate\Old\Menu_Background_Inverted_Border_Bold.png	2016-10-01T11:42:50.481Z
Engine\Content\Slate\Old\Notification_Border_Flash.png	2016-10-01T11:40:08.202Z
Engine\Content\Slate\Old\ToolBar_Background.png	2016-10-01T11:41:31.790Z
Engine\Content\Slate\Old\ToolTip_Background.png	2016-10-01T11:41:31.794Z
Engine\Content\Slate\Old\ToolTip_BrightBackground.png	2016-10-01T11:36:13.697Z
Engine\Content\Slate\Old\White.png	2016-10-01T11:41:31.815Z
Engine\Content\Slate\Testing\BrushWireframe.png	2016-10-01T11:42:50.385Z
Engine\Content\Slate\Testing\DefaultPawn_16px.png	2016-10-01T11:32:26.526Z
Engine\Content\Slate\Testing\FlatColorSquare.png	2016-10-01T11:41:33.469Z
Engine\Content\Slate\Testing\GammaReference.png	2016-10-01T11:42:49.892Z
Engine\Content\Slate\Testing\Hyperlink.png	2016-10-01T11:41:32.068Z
Engine\Content\Slate\Testing\Lit.png	2016-10-01T11:42:50.394Z
Engine\Content\Slate\Testing\NewLevelBlank.png	2016-10-01T11:35:55.087Z
Engine\Content\Slate\Testing\TestRotation.png	2016-10-01T11:39:01.387Z
Engine\Content\Slate\Testing\UE4Icon.png	2016-10-01T11:40:36.698Z
Engine\Content\Slate\Testing\Unlit.png	2016-10-01T11:42:50.413Z
Engine\Content\Slate\Testing\Wireframe.png	2016-10-01T11:42:50.416Z
Engine\Content\Slate\Testing\Fonts\Roboto-BlackItalic.ttf	2016-10-01T11:41:34.121Z
Engine\Content\Slate\Testing\Fonts\Roboto-BoldItalic.ttf	2016-10-01T11:36:22.650Z
Engine\Content\Slate\Testing\Fonts\Roboto-Italic.ttf	2016-10-01T11:41:34.147Z
Engine\Content\Slate\Tutorials\TutorialBorder.png	2016-10-01T11:39:02.630Z
Engine\Content\Slate\Tutorials\TutorialShadow.png	2016-10-01T11:41:32.095Z
Engine\Shaders\StandaloneRenderer\D3D\GammaCorrectionCommon.hlsl	2016-10-01T11:26:55.563Z
Engine\Shaders\StandaloneRenderer\D3D\SlateDefaultVertexShader.hlsl	2016-10-01T11:26:55.566Z
Engine\Shaders\StandaloneRenderer\D3D\SlateElementPixelShader.hlsl	2016-10-01T11:26:55.569Z
Engine\Shaders\StandaloneRenderer\OpenGL\SlateElementPixelShader.glsl	2016-10-01T11:26:55.573Z
Engine\Shaders\StandaloneRenderer\OpenGL\SlateVertexShader.glsl	2016-10-01T11:26:55.576Z
Engine\Shaders\StandaloneRenderer\OpenGL\SplashFragmentShader.glsl	2016-10-01T11:26:55.579Z
Engine\Shaders\StandaloneRenderer\OpenGL\SplashVertexShader.glsl	2016-10-01T11:26:55.582Z
Engine\Content\Internationalization\icudt53l\cnvalias.icu	2016-10-01T11:33:15.449Z
Engine\Content\Internationalization\icudt53l\confusables.cfu	2016-10-01T11:32:24.829Z
Engine\Content\Internationalization\icudt53l\en.res	2016-10-01T11:34:21.860Z
Engine\Content\Internationalization\icudt53l\en_001.res	2016-10-01T11:34:21.875Z
Engine\Content\Internationalization\icudt53l\en_150.res	2016-10-01T11:34:21.893Z
Engine\Content\Internationalization\icudt53l\en_AG.res	2016-10-01T11:34:21.921Z
Engine\Content\Internationalization\icudt53l\en_AI.res	2016-10-01T11:34:22.358Z
Engine\Content\Internationalization\icudt53l\en_AS.res	2016-10-01T11:41:36.239Z
Engine\Content\Internationalization\icudt53l\en_AU.res	2016-10-01T11:34:22.578Z
Engine\Content\Internationalization\icudt53l\en_BB.res	2016-10-01T11:34:21.921Z
Engine\Content\Internationalization\icudt53l\en_BE.res	2016-10-01T11:34:21.893Z
Engine\Content\Internationalization\icudt53l\en_BM.res	2016-10-01T11:34:21.921Z
Engine\Content\Internationalization\icudt53l\en_BS.res	2016-10-01T11:34:22.589Z
Engine\Content\Internationalization\icudt53l\en_BW.res	2016-10-01T11:34:22.616Z
Engine\Content\Internationalization\icudt53l\en_BZ.res	2016-10-01T11:34:22.626Z
Engine\Content\Internationalization\icudt53l\en_CA.res	2016-10-01T11:34:22.638Z
Engine\Content\Internationalization\icudt53l\en_CC.res	2016-10-01T11:34:22.358Z
Engine\Content\Internationalization\icudt53l\en_CK.res	2016-10-01T11:34:22.358Z
Engine\Content\Internationalization\icudt53l\en_CM.res	2016-10-01T11:34:21.921Z
Engine\Content\Internationalization\icudt53l\en_CX.res	2016-10-01T11:34:22.358Z
Engine\Content\Internationalization\icudt53l\en_DG.res	2016-10-01T11:34:22.647Z
Engine\Content\Internationalization\icudt53l\en_DM.res	2016-10-01T11:34:21.921Z
Engine\Content\Internationalization\icudt53l\en_ER.res	2016-10-01T11:34:22.358Z
Engine\Content\Internationalization\icudt53l\en_FJ.res	2016-10-01T11:34:21.921Z
Engine\Content\Internationalization\icudt53l\en_FK.res	2016-10-01T11:34:22.663Z
Engine\Content\Internationalization\icudt53l\en_FM.res	2016-10-01T11:34:21.921Z
Engine\Content\Internationalization\icudt53l\en_GB.res	2016-10-01T11:34:22.681Z
Engine\Content\Internationalization\icudt53l\en_GD.res	2016-10-01T11:34:21.921Z
Engine\Content\Internationalization\icudt53l\en_GG.res	2016-10-01T11:34:22.691Z
Engine\Content\Internationalization\icudt53l\en_GH.res	2016-10-01T11:34:21.921Z
Engine\Content\Internationalization\icudt53l\en_GI.res	2016-10-01T11:34:22.691Z
Engine\Content\Internationalization\icudt53l\en_GM.res	2016-10-01T11:34:21.921Z
Engine\Content\Internationalization\icudt53l\en_GU.res	2016-10-01T11:41:36.239Z
Engine\Content\Internationalization\icudt53l\en_GY.res	2016-10-01T11:34:21.921Z
Engine\Content\Internationalization\icudt53l\en_HK.res	2016-10-01T11:34:22.722Z
Engine\Content\Internationalization\icudt53l\en_IE.res	2016-10-01T11:34:22.735Z
Engine\Content\Internationalization\icudt53l\en_IM.res	2016-10-01T11:34:22.691Z
Engine\Content\Internationalization\icudt53l\en_IN.res	2016-10-01T11:34:22.746Z
Engine\Content\Internationalization\icudt53l\en_IO.res	2016-10-01T11:34:22.647Z
Engine\Content\Internationalization\icudt53l\en_JE.res	2016-10-01T11:34:22.691Z
Engine\Content\Internationalization\icudt53l\en_JM.res	2016-10-01T11:34:22.756Z
Engine\Content\Internationalization\icudt53l\en_KE.res	2016-10-01T11:34:21.921Z
Engine\Content\Internationalization\icudt53l\en_KI.res	2016-10-01T11:34:21.921Z
Engine\Content\Internationalization\icudt53l\en_KN.res	2016-10-01T11:34:21.921Z
Engine\Content\Internationalization\icudt53l\en_KY.res	2016-10-01T11:34:22.589Z
Engine\Content\Internationalization\icudt53l\en_LC.res	2016-10-01T11:34:21.921Z
Engine\Content\Internationalization\icudt53l\en_LR.res	2016-10-01T11:34:21.921Z
Engine\Content\Internationalization\icudt53l\en_LS.res	2016-10-01T11:34:21.921Z
Engine\Content\Internationalization\icudt53l\en_MG.res	2016-10-01T11:34:21.921Z
Engine\Content\Internationalization\icudt53l\en_MH.res	2016-10-01T11:41:36.239Z
Engine\Content\Internationalization\icudt53l\en_MO.res	2016-10-01T11:34:22.782Z
Engine\Content\Internationalization\icudt53l\en_MP.res	2016-10-01T11:41:36.239Z
Engine\Content\Internationalization\icudt53l\en_MS.res	2016-10-01T11:34:22.358Z
Engine\Content\Internationalization\icudt53l\en_MT.res	2016-10-01T11:34:22.791Z
Engine\Content\Internationalization\icudt53l\en_MU.res	2016-10-01T11:34:21.921Z
Engine\Content\Internationalization\icudt53l\en_MW.res	2016-10-01T11:34:21.921Z
Engine\Content\Internationalization\icudt53l\en_NA.res	2016-10-01T11:34:22.756Z
Engine\Content\Internationalization\icudt53l\en_NF.res	2016-10-01T11:34:22.358Z
Engine\Content\Internationalization\icudt53l\en_NG.res	2016-10-01T11:34:21.921Z
Engine\Content\Internationalization\icudt53l\en_NH.res	2016-10-01T11:34:22.803Z
Engine\Content\Internationalization\icudt53l\en_NR.res	2016-10-01T11:34:22.358Z
Engine\Content\Internationalization\icudt53l\en_NU.res	2016-10-01T11:34:22.358Z
Engine\Content\Internationalization\icudt53l\en_NZ.res	2016-10-01T11:34:22.814Z
Engine\Content\Internationalization\icudt53l\en_PG.res	2016-10-01T11:34:21.921Z
Engine\Content\Internationalization\icudt53l\en_PH.res	2016-10-01T11:34:21.921Z
Engine\Content\Internationalization\icudt53l\en_PK.res	2016-10-01T11:34:22.824Z
Engine\Content\Internationalization\icudt53l\en_PN.res	2016-10-01T11:34:22.358Z
Engine\Content\Internationalization\icudt53l\en_PR.res	2016-10-01T11:41:36.239Z
Engine\Content\Internationalization\icudt53l\en_PW.res	2016-10-01T11:34:22.589Z
Engine\Content\Internationalization\icudt53l\en_RH.res	2016-10-01T11:34:22.838Z
Engine\Content\Internationalization\icudt53l\en_RW.res	2016-10-01T11:34:22.358Z
Engine\Content\Internationalization\icudt53l\en_SB.res	2016-10-01T11:34:21.921Z
Engine\Content\Internationalization\icudt53l\en_SC.res	2016-10-01T11:34:21.921Z
Engine\Content\Internationalization\icudt53l\en_SD.res	2016-10-01T11:34:22.358Z
Engine\Content\Internationalization\icudt53l\en_SG.res	2016-10-01T11:34:22.850Z
Engine\Content\Internationalization\icudt53l\en_SH.res	2016-10-01T11:34:22.663Z
Engine\Content\Internationalization\icudt53l\en_SL.res	2016-10-01T11:34:21.921Z
Engine\Content\Internationalization\icudt53l\en_SS.res	2016-10-01T11:34:21.921Z
Engine\Content\Internationalization\icudt53l\en_SX.res	2016-10-01T11:34:22.358Z
Engine\Content\Internationalization\icudt53l\en_SZ.res	2016-10-01T11:34:21.921Z
Engine\Content\Internationalization\icudt53l\en_TC.res	2016-10-01T11:34:21.921Z
Engine\Content\Internationalization\icudt53l\en_TK.res	2016-10-01T11:34:22.358Z
Engine\Content\Internationalization\icudt53l\en_TO.res	2016-10-01T11:34:21.921Z
Engine\Content\Internationalization\icudt53l\en_TT.res	2016-10-01T11:34:22.756Z
Engine\Content\Internationalization\icudt53l\en_TV.res	2016-10-01T11:34:22.358Z
Engine\Content\Internationalization\icudt53l\en_TZ.res	2016-10-01T11:34:21.921Z
Engine\Content\Internationalization\icudt53l\en_UG.res	2016-10-01T11:34:21.921Z
Engine\Content\Internationalization\icudt53l\en_UM.res	2016-10-01T11:41:36.239Z
Engine\Content\Internationalization\icudt53l\en_US.res	2016-10-01T11:41:36.239Z
Engine\Content\Internationalization\icudt53l\en_US_POSIX.res	2016-10-01T11:34:22.860Z
Engine\Content\Internationalization\icudt53l\en_VC.res	2016-10-01T11:34:21.921Z
Engine\Content\Internationalization\icudt53l\en_VG.res	2016-10-01T11:34:22.870Z
Engine\Content\Internationalization\icudt53l\en_VI.res	2016-10-01T11:41:36.239Z
Engine\Content\Internationalization\icudt53l\en_VU.res	2016-10-01T11:34:21.921Z
Engine\Content\Internationalization\icudt53l\en_WS.res	2016-10-01T11:34:21.921Z
Engine\Content\Internationalization\icudt53l\en_ZA.res	2016-10-01T11:34:22.882Z
Engine\Content\Internationalization\icudt53l\en_ZM.res	2016-10-01T11:34:21.921Z
Engine\Content\Internationalization\icudt53l\en_ZW.res	2016-10-01T11:34:22.893Z
Engine\Content\Internationalization\icudt53l\ibm-1047_P100-1995.cnv	2016-10-01T11:34:23.444Z
Engine\Content\Internationalization\icudt53l\ibm-37_P100-1995.cnv	2016-10-01T11:34:23.458Z
Engine\Content\Internationalization\icudt53l\keyTypeData.res	2016-10-01T11:34:23.631Z
Engine\Content\Internationalization\icudt53l\leet.res	2016-10-01T11:34:30.831Z
Engine\Content\Internationalization\icudt53l\nfc.nrm	2016-10-01T11:34:46.677Z
Engine\Content\Internationalization\icudt53l\nfkc.nrm	2016-10-01T11:34:46.758Z
Engine\Content\Internationalization\icudt53l\nfkc_cf.nrm	2016-10-01T11:34:46.798Z
Engine\Content\Internationalization\icudt53l\numberingSystems.res	2016-10-01T11:34:47.027Z
Engine\Content\Internationalization\icudt53l\pool.res	2016-10-01T11:34:47.218Z
Engine\Content\Internationalization\icudt53l\res_index.res	2016-10-01T11:33:24.855Z
Engine\Content\Internationalization\icudt53l\root.res	2016-10-01T11:33:41.756Z
Engine\Content\Internationalization\icudt53l\unames.icu	2016-10-01T11:33:42.170Z
Engine\Content\Internationalization\icudt53l\uts46.nrm	2016-10-01T11:33:42.202Z
Engine\Content\Internationalization\icudt53l\zoneinfo64.res	2016-10-01T11:33:24.727Z
Engine\Content\Internationalization\icudt53l\brkitr\char.brk	2016-10-01T11:32:22.365Z
Engine\Content\Internationalization\icudt53l\brkitr\en.res	2016-10-01T11:35:00.386Z
Engine\Content\Internationalization\icudt53l\brkitr\en_US.res	2016-10-01T11:36:48.885Z
Engine\Content\Internationalization\icudt53l\brkitr\en_US_POSIX.res	2016-10-01T11:39:38.553Z
Engine\Content\Internationalization\icudt53l\brkitr\leet.res	2016-10-01T11:38:24.996Z
Engine\Content\Internationalization\icudt53l\brkitr\line.brk	2016-10-01T11:33:15.371Z
Engine\Content\Internationalization\icudt53l\brkitr\res_index.res	2016-10-01T11:33:24.834Z
Engine\Content\Internationalization\icudt53l\brkitr\root.res	2016-10-01T11:34:20.567Z
Engine\Content\Internationalization\icudt53l\brkitr\sent.brk	2016-10-01T11:36:05.152Z
Engine\Content\Internationalization\icudt53l\brkitr\title.brk	2016-10-01T11:39:36.813Z
Engine\Content\Internationalization\icudt53l\brkitr\word.brk	2016-10-01T11:33:15.418Z
Engine\Content\Internationalization\icudt53l\brkitr\word_POSIX.brk	2016-10-01T11:33:15.430Z
Engine\Content\Internationalization\icudt53l\coll\en.res	2016-10-01T11:35:12.097Z
Engine\Content\Internationalization\icudt53l\coll\en_US.res	2016-10-01T11:41:34.167Z
Engine\Content\Internationalization\icudt53l\coll\en_US_POSIX.res	2016-10-01T11:33:15.551Z
Engine\Content\Internationalization\icudt53l\coll\leet.res	2016-10-01T11:33:15.551Z
Engine\Content\Internationalization\icudt53l\coll\res_index.res	2016-10-01T11:33:24.834Z
Engine\Content\Internationalization\icudt53l\coll\root.res	2016-10-01T11:32:24.699Z
Engine\Content\Internationalization\icudt53l\coll\ucadata.icu	2016-10-01T11:32:24.779Z
Engine\Content\Internationalization\icudt53l\curr\en.res	2016-10-01T11:32:25.068Z
Engine\Content\Internationalization\icudt53l\curr\en_001.res	2016-10-01T11:32:25.087Z
Engine\Content\Internationalization\icudt53l\curr\en_150.res	2016-10-01T11:32:25.099Z
Engine\Content\Internationalization\icudt53l\curr\en_AG.res	2016-10-01T11:32:25.108Z
Engine\Content\Internationalization\icudt53l\curr\en_AI.res	2016-10-01T11:32:25.218Z
Engine\Content\Internationalization\icudt53l\curr\en_AU.res	2016-10-01T11:32:25.240Z
Engine\Content\Internationalization\icudt53l\curr\en_BB.res	2016-10-01T11:32:25.248Z
Engine\Content\Internationalization\icudt53l\curr\en_BE.res	2016-10-01T11:32:25.257Z
Engine\Content\Internationalization\icudt53l\curr\en_BM.res	2016-10-01T11:32:25.272Z
Engine\Content\Internationalization\icudt53l\curr\en_BS.res	2016-10-01T11:32:25.281Z
Engine\Content\Internationalization\icudt53l\curr\en_BW.res	2016-10-01T11:32:25.292Z
Engine\Content\Internationalization\icudt53l\curr\en_BZ.res	2016-10-01T11:32:25.300Z
Engine\Content\Internationalization\icudt53l\curr\en_CA.res	2016-10-01T11:32:25.310Z
Engine\Content\Internationalization\icudt53l\curr\en_CC.res	2016-10-01T11:32:25.319Z
Engine\Content\Internationalization\icudt53l\curr\en_CK.res	2016-10-01T11:32:25.351Z
Engine\Content\Internationalization\icudt53l\curr\en_CM.res	2016-10-01T11:32:25.108Z
Engine\Content\Internationalization\icudt53l\curr\en_CX.res	2016-10-01T11:32:25.319Z
Engine\Content\Internationalization\icudt53l\curr\en_DG.res	2016-10-01T11:32:25.377Z
Engine\Content\Internationalization\icudt53l\curr\en_DM.res	2016-10-01T11:32:25.108Z
Engine\Content\Internationalization\icudt53l\curr\en_ER.res	2016-10-01T11:32:25.400Z
Engine\Content\Internationalization\icudt53l\curr\en_FJ.res	2016-10-01T11:32:25.411Z
Engine\Content\Internationalization\icudt53l\curr\en_FK.res	2016-10-01T11:32:25.419Z
Engine\Content\Internationalization\icudt53l\curr\en_FM.res	2016-10-01T11:32:25.108Z
Engine\Content\Internationalization\icudt53l\curr\en_GB.res	2016-10-01T11:32:25.428Z
Engine\Content\Internationalization\icudt53l\curr\en_GD.res	2016-10-01T11:32:25.108Z
Engine\Content\Internationalization\icudt53l\curr\en_GG.res	2016-10-01T11:32:25.439Z
Engine\Content\Internationalization\icudt53l\curr\en_GH.res	2016-10-01T11:32:25.461Z
Engine\Content\Internationalization\icudt53l\curr\en_GI.res	2016-10-01T11:32:25.476Z
Engine\Content\Internationalization\icudt53l\curr\en_GM.res	2016-10-01T11:32:25.484Z
Engine\Content\Internationalization\icudt53l\curr\en_GY.res	2016-10-01T11:32:25.496Z
Engine\Content\Internationalization\icudt53l\curr\en_HK.res	2016-10-01T11:32:25.507Z
Engine\Content\Internationalization\icudt53l\curr\en_IE.res	2016-10-01T11:32:25.377Z
Engine\Content\Internationalization\icudt53l\curr\en_IM.res	2016-10-01T11:32:25.439Z
Engine\Content\Internationalization\icudt53l\curr\en_IN.res	2016-10-01T11:32:25.257Z
Engine\Content\Internationalization\icudt53l\curr\en_IO.res	2016-10-01T11:32:25.377Z
Engine\Content\Internationalization\icudt53l\curr\en_JE.res	2016-10-01T11:32:25.439Z
Engine\Content\Internationalization\icudt53l\curr\en_JM.res	2016-10-01T11:32:25.515Z
Engine\Content\Internationalization\icudt53l\curr\en_KE.res	2016-10-01T11:32:25.525Z
Engine\Content\Internationalization\icudt53l\curr\en_KI.res	2016-10-01T11:32:25.533Z
Engine\Content\Internationalization\icudt53l\curr\en_KN.res	2016-10-01T11:32:25.108Z
Engine\Content\Internationalization\icudt53l\curr\en_KY.res	2016-10-01T11:32:25.544Z
Engine\Content\Internationalization\icudt53l\curr\en_LC.res	2016-10-01T11:32:25.108Z
Engine\Content\Internationalization\icudt53l\curr\en_LR.res	2016-10-01T11:32:25.552Z
Engine\Content\Internationalization\icudt53l\curr\en_LS.res	2016-10-01T11:32:25.561Z
Engine\Content\Internationalization\icudt53l\curr\en_MG.res	2016-10-01T11:32:25.578Z
Engine\Content\Internationalization\icudt53l\curr\en_MO.res	2016-10-01T11:32:25.586Z
Engine\Content\Internationalization\icudt53l\curr\en_MS.res	2016-10-01T11:32:25.218Z
Engine\Content\Internationalization\icudt53l\curr\en_MT.res	2016-10-01T11:32:25.597Z
Engine\Content\Internationalization\icudt53l\curr\en_MU.res	2016-10-01T11:32:25.608Z
Engine\Content\Internationalization\icudt53l\curr\en_MW.res	2016-10-01T11:32:25.617Z
Engine\Content\Internationalization\icudt53l\curr\en_NA.res	2016-10-01T11:32:25.626Z
Engine\Content\Internationalization\icudt53l\curr\en_NF.res	2016-10-01T11:32:25.319Z
Engine\Content\Internationalization\icudt53l\curr\en_NG.res	2016-10-01T11:32:25.634Z
Engine\Content\Internationalization\icudt53l\curr\en_NH.res	2016-10-01T11:32:25.646Z
Engine\Content\Internationalization\icudt53l\curr\en_NR.res	2016-10-01T11:32:25.319Z
Engine\Content\Internationalization\icudt53l\curr\en_NU.res	2016-10-01T11:32:25.351Z
Engine\Content\Internationalization\icudt53l\curr\en_NZ.res	2016-10-01T11:32:25.654Z
Engine\Content\Internationalization\icudt53l\curr\en_PG.res	2016-10-01T11:32:25.663Z
Engine\Content\Internationalization\icudt53l\curr\en_PH.res	2016-10-01T11:32:25.674Z
Engine\Content\Internationalization\icudt53l\curr\en_PK.res	2016-10-01T11:32:25.683Z
Engine\Content\Internationalization\icudt53l\curr\en_PN.res	2016-10-01T11:32:25.351Z
Engine\Content\Internationalization\icudt53l\curr\en_PW.res	2016-10-01T11:32:25.692Z
Engine\Content\Internationalization\icudt53l\curr\en_RH.res	2016-10-01T11:32:25.700Z
Engine\Content\Internationalization\icudt53l\curr\en_RW.res	2016-10-01T11:32:25.712Z
Engine\Content\Internationalization\icudt53l\curr\en_SB.res	2016-10-01T11:32:25.720Z
Engine\Content\Internationalization\icudt53l\curr\en_SC.res	2016-10-01T11:32:25.729Z
Engine\Content\Internationalization\icudt53l\curr\en_SD.res	2016-10-01T11:32:25.218Z
Engine\Content\Internationalization\icudt53l\curr\en_SG.res	2016-10-01T11:32:25.740Z
Engine\Content\Internationalization\icudt53l\curr\en_SH.res	2016-10-01T11:32:25.748Z
Engine\Content\Internationalization\icudt53l\curr\en_SL.res	2016-10-01T11:32:25.756Z
Engine\Content\Internationalization\icudt53l\curr\en_SS.res	2016-10-01T11:32:25.764Z
Engine\Content\Internationalization\icudt53l\curr\en_SX.res	2016-10-01T11:32:25.776Z
Engine\Content\Internationalization\icudt53l\curr\en_SZ.res	2016-10-01T11:32:25.784Z
Engine\Content\Internationalization\icudt53l\curr\en_TC.res	2016-10-01T11:32:25.108Z
Engine\Content\Internationalization\icudt53l\curr\en_TK.res	2016-10-01T11:32:25.351Z
Engine\Content\Internationalization\icudt53l\curr\en_TO.res	2016-10-01T11:32:25.792Z
Engine\Content\Internationalization\icudt53l\curr\en_TT.res	2016-10-01T11:32:25.801Z
Engine\Content\Internationalization\icudt53l\curr\en_TV.res	2016-10-01T11:32:25.319Z
Engine\Content\Internationalization\icudt53l\curr\en_TZ.res	2016-10-01T11:32:25.814Z
Engine\Content\Internationalization\icudt53l\curr\en_UG.res	2016-10-01T11:32:25.822Z
Engine\Content\Internationalization\icudt53l\curr\en_VC.res	2016-10-01T11:32:25.108Z
Engine\Content\Internationalization\icudt53l\curr\en_VG.res	2016-10-01T11:32:25.831Z
Engine\Content\Internationalization\icudt53l\curr\en_VU.res	2016-10-01T11:32:25.842Z
Engine\Content\Internationalization\icudt53l\curr\en_WS.res	2016-10-01T11:32:25.852Z
Engine\Content\Internationalization\icudt53l\curr\en_ZA.res	2016-10-01T11:32:25.561Z
Engine\Content\Internationalization\icudt53l\curr\en_ZM.res	2016-10-01T11:32:25.862Z
Engine\Content\Internationalization\icudt53l\curr\en_ZW.res	2016-10-01T11:32:25.875Z
Engine\Content\Internationalization\icudt53l\curr\leet.res	2016-10-01T11:32:25.068Z
Engine\Content\Internationalization\icudt53l\curr\pool.res	2016-10-01T11:33:28.482Z
Engine\Content\Internationalization\icudt53l\curr\res_index.res	2016-10-01T11:33:24.840Z
Engine\Content\Internationalization\icudt53l\curr\root.res	2016-10-01T11:33:28.594Z
Engine\Content\Internationalization\icudt53l\curr\supplementalData.res	2016-10-01T11:34:20.950Z
Engine\Content\Internationalization\icudt53l\lang\en.res	2016-10-01T11:34:24.363Z
Engine\Content\Internationalization\icudt53l\lang\en_150.res	2016-10-01T11:34:24.373Z
Engine\Content\Internationalization\icudt53l\lang\en_AG.res	2016-10-01T11:34:24.414Z
Engine\Content\Internationalization\icudt53l\lang\en_AI.res	2016-10-01T11:34:24.756Z
Engine\Content\Internationalization\icudt53l\lang\en_AU.res	2016-10-01T11:34:24.885Z
Engine\Content\Internationalization\icudt53l\lang\en_BB.res	2016-10-01T11:34:24.414Z
Engine\Content\Internationalization\icudt53l\lang\en_BE.res	2016-10-01T11:34:24.373Z
Engine\Content\Internationalization\icudt53l\lang\en_BM.res	2016-10-01T11:34:24.414Z
Engine\Content\Internationalization\icudt53l\lang\en_BS.res	2016-10-01T11:34:24.898Z
Engine\Content\Internationalization\icudt53l\lang\en_BW.res	2016-10-01T11:34:24.937Z
Engine\Content\Internationalization\icudt53l\lang\en_BZ.res	2016-10-01T11:34:24.898Z
Engine\Content\Internationalization\icudt53l\lang\en_CC.res	2016-10-01T11:34:24.756Z
Engine\Content\Internationalization\icudt53l\lang\en_CK.res	2016-10-01T11:34:24.756Z
Engine\Content\Internationalization\icudt53l\lang\en_CM.res	2016-10-01T11:34:24.414Z
Engine\Content\Internationalization\icudt53l\lang\en_CX.res	2016-10-01T11:34:24.756Z
Engine\Content\Internationalization\icudt53l\lang\en_DG.res	2016-10-01T11:34:24.950Z
Engine\Content\Internationalization\icudt53l\lang\en_DM.res	2016-10-01T11:34:24.414Z
Engine\Content\Internationalization\icudt53l\lang\en_ER.res	2016-10-01T11:34:24.756Z
Engine\Content\Internationalization\icudt53l\lang\en_FJ.res	2016-10-01T11:34:24.414Z
Engine\Content\Internationalization\icudt53l\lang\en_FK.res	2016-10-01T11:34:24.987Z
Engine\Content\Internationalization\icudt53l\lang\en_FM.res	2016-10-01T11:34:24.414Z
Engine\Content\Internationalization\icudt53l\lang\en_GB.res	2016-10-01T11:34:25.008Z
Engine\Content\Internationalization\icudt53l\lang\en_GD.res	2016-10-01T11:34:24.414Z
Engine\Content\Internationalization\icudt53l\lang\en_GG.res	2016-10-01T11:34:25.023Z
Engine\Content\Internationalization\icudt53l\lang\en_GH.res	2016-10-01T11:34:24.414Z
Engine\Content\Internationalization\icudt53l\lang\en_GI.res	2016-10-01T11:34:25.023Z
Engine\Content\Internationalization\icudt53l\lang\en_GM.res	2016-10-01T11:34:24.414Z
Engine\Content\Internationalization\icudt53l\lang\en_GY.res	2016-10-01T11:34:24.414Z
Engine\Content\Internationalization\icudt53l\lang\en_HK.res	2016-10-01T11:34:24.950Z
Engine\Content\Internationalization\icudt53l\lang\en_IE.res	2016-10-01T11:34:24.950Z
Engine\Content\Internationalization\icudt53l\lang\en_IM.res	2016-10-01T11:34:25.023Z
Engine\Content\Internationalization\icudt53l\lang\en_IN.res	2016-10-01T11:34:24.373Z
Engine\Content\Internationalization\icudt53l\lang\en_IO.res	2016-10-01T11:34:24.950Z
Engine\Content\Internationalization\icudt53l\lang\en_JE.res	2016-10-01T11:34:25.023Z
Engine\Content\Internationalization\icudt53l\lang\en_JM.res	2016-10-01T11:34:25.086Z
Engine\Content\Internationalization\icudt53l\lang\en_KE.res	2016-10-01T11:34:24.414Z
Engine\Content\Internationalization\icudt53l\lang\en_KI.res	2016-10-01T11:34:24.414Z
Engine\Content\Internationalization\icudt53l\lang\en_KN.res	2016-10-01T11:34:24.414Z
Engine\Content\Internationalization\icudt53l\lang\en_KY.res	2016-10-01T11:34:24.898Z
Engine\Content\Internationalization\icudt53l\lang\en_LC.res	2016-10-01T11:34:24.414Z
Engine\Content\Internationalization\icudt53l\lang\en_LR.res	2016-10-01T11:34:24.414Z
Engine\Content\Internationalization\icudt53l\lang\en_LS.res	2016-10-01T11:34:24.414Z
Engine\Content\Internationalization\icudt53l\lang\en_MG.res	2016-10-01T11:34:24.414Z
Engine\Content\Internationalization\icudt53l\lang\en_MO.res	2016-10-01T11:34:25.185Z
Engine\Content\Internationalization\icudt53l\lang\en_MS.res	2016-10-01T11:34:24.756Z
Engine\Content\Internationalization\icudt53l\lang\en_MT.res	2016-10-01T11:34:25.023Z
Engine\Content\Internationalization\icudt53l\lang\en_MU.res	2016-10-01T11:34:24.414Z
Engine\Content\Internationalization\icudt53l\lang\en_MW.res	2016-10-01T11:34:24.414Z
Engine\Content\Internationalization\icudt53l\lang\en_NA.res	2016-10-01T11:34:25.086Z
Engine\Content\Internationalization\icudt53l\lang\en_NF.res	2016-10-01T11:34:24.756Z
Engine\Content\Internationalization\icudt53l\lang\en_NG.res	2016-10-01T11:34:24.414Z
Engine\Content\Internationalization\icudt53l\lang\en_NH.res	2016-10-01T11:34:25.215Z
Engine\Content\Internationalization\icudt53l\lang\en_NR.res	2016-10-01T11:34:24.756Z
Engine\Content\Internationalization\icudt53l\lang\en_NU.res	2016-10-01T11:34:24.756Z
Engine\Content\Internationalization\icudt53l\lang\en_NZ.res	2016-10-01T11:34:25.023Z
Engine\Content\Internationalization\icudt53l\lang\en_PG.res	2016-10-01T11:34:24.414Z
Engine\Content\Internationalization\icudt53l\lang\en_PH.res	2016-10-01T11:34:24.414Z
Engine\Content\Internationalization\icudt53l\lang\en_PK.res	2016-10-01T11:34:24.373Z
Engine\Content\Internationalization\icudt53l\lang\en_PN.res	2016-10-01T11:34:24.756Z
Engine\Content\Internationalization\icudt53l\lang\en_PW.res	2016-10-01T11:34:24.898Z
Engine\Content\Internationalization\icudt53l\lang\en_RH.res	2016-10-01T11:34:25.234Z
Engine\Content\Internationalization\icudt53l\lang\en_RW.res	2016-10-01T11:34:24.756Z
Engine\Content\Internationalization\icudt53l\lang\en_SB.res	2016-10-01T11:34:24.414Z
Engine\Content\Internationalization\icudt53l\lang\en_SC.res	2016-10-01T11:34:24.414Z
Engine\Content\Internationalization\icudt53l\lang\en_SD.res	2016-10-01T11:34:24.756Z
Engine\Content\Internationalization\icudt53l\lang\en_SG.res	2016-10-01T11:34:25.254Z
Engine\Content\Internationalization\icudt53l\lang\en_SH.res	2016-10-01T11:34:24.987Z
Engine\Content\Internationalization\icudt53l\lang\en_SL.res	2016-10-01T11:34:24.414Z
Engine\Content\Internationalization\icudt53l\lang\en_SS.res	2016-10-01T11:34:24.414Z
Engine\Content\Internationalization\icudt53l\lang\en_SX.res	2016-10-01T11:34:24.756Z
Engine\Content\Internationalization\icudt53l\lang\en_SZ.res	2016-10-01T11:34:24.414Z
Engine\Content\Internationalization\icudt53l\lang\en_TC.res	2016-10-01T11:34:24.414Z
Engine\Content\Internationalization\icudt53l\lang\en_TK.res	2016-10-01T11:34:24.756Z
Engine\Content\Internationalization\icudt53l\lang\en_TO.res	2016-10-01T11:34:24.414Z
Engine\Content\Internationalization\icudt53l\lang\en_TT.res	2016-10-01T11:34:25.086Z
Engine\Content\Internationalization\icudt53l\lang\en_TV.res	2016-10-01T11:34:24.756Z
Engine\Content\Internationalization\icudt53l\lang\en_TZ.res	2016-10-01T11:34:24.414Z
Engine\Content\Internationalization\icudt53l\lang\en_UG.res	2016-10-01T11:34:24.414Z
Engine\Content\Internationalization\icudt53l\lang\en_VC.res	2016-10-01T11:34:24.414Z
Engine\Content\Internationalization\icudt53l\lang\en_VG.res	2016-10-01T11:34:25.271Z
Engine\Content\Internationalization\icudt53l\lang\en_VU.res	2016-10-01T11:34:24.414Z
Engine\Content\Internationalization\icudt53l\lang\en_WS.res	2016-10-01T11:34:24.414Z
Engine\Content\Internationalization\icudt53l\lang\en_ZA.res	2016-10-01T11:34:24.414Z
Engine\Content\Internationalization\icudt53l\lang\en_ZM.res	2016-10-01T11:34:24.414Z
Engine\Content\Internationalization\icudt53l\lang\en_ZW.res	2016-10-01T11:34:25.086Z
Engine\Content\Internationalization\icudt53l\lang\leet.res	2016-10-01T11:34:26.073Z
Engine\Content\Internationalization\icudt53l\lang\pool.res	2016-10-01T11:34:29.939Z
Engine\Content\Internationalization\icudt53l\lang\res_index.res	2016-10-01T11:33:24.846Z
Engine\Content\Internationalization\icudt53l\lang\root.res	2016-10-01T11:34:30.006Z
Engine\Content\Internationalization\icudt53l\rbnf\en.res	2016-10-01T11:34:47.437Z
Engine\Content\Internationalization\icudt53l\rbnf\leet.res	2016-10-01T11:34:47.437Z
Engine\Content\Internationalization\icudt53l\rbnf\res_index.res	2016-10-01T11:33:24.851Z
Engine\Content\Internationalization\icudt53l\rbnf\root.res	2016-10-01T11:34:48.009Z
Engine\Content\Internationalization\icudt53l\region\en.res	2016-10-01T11:34:48.659Z
Engine\Content\Internationalization\icudt53l\region\en_150.res	2016-10-01T11:34:48.676Z
Engine\Content\Internationalization\icudt53l\region\en_AG.res	2016-10-01T11:34:48.719Z
Engine\Content\Internationalization\icudt53l\region\en_AI.res	2016-10-01T11:34:49.045Z
Engine\Content\Internationalization\icudt53l\region\en_AU.res	2016-10-01T11:34:49.191Z
Engine\Content\Internationalization\icudt53l\region\en_BB.res	2016-10-01T11:34:48.719Z
Engine\Content\Internationalization\icudt53l\region\en_BE.res	2016-10-01T11:34:48.676Z
Engine\Content\Internationalization\icudt53l\region\en_BM.res	2016-10-01T11:34:48.719Z
Engine\Content\Internationalization\icudt53l\region\en_BS.res	2016-10-01T11:34:49.202Z
Engine\Content\Internationalization\icudt53l\region\en_BW.res	2016-10-01T11:34:49.242Z
Engine\Content\Internationalization\icudt53l\region\en_BZ.res	2016-10-01T11:34:49.202Z
Engine\Content\Internationalization\icudt53l\region\en_CC.res	2016-10-01T11:34:49.045Z
Engine\Content\Internationalization\icudt53l\region\en_CK.res	2016-10-01T11:34:49.045Z
Engine\Content\Internationalization\icudt53l\region\en_CM.res	2016-10-01T11:34:48.719Z
Engine\Content\Internationalization\icudt53l\region\en_CX.res	2016-10-01T11:34:49.045Z
Engine\Content\Internationalization\icudt53l\region\en_DG.res	2016-10-01T11:34:49.257Z
Engine\Content\Internationalization\icudt53l\region\en_DM.res	2016-10-01T11:34:48.719Z
Engine\Content\Internationalization\icudt53l\region\en_ER.res	2016-10-01T11:34:49.045Z
Engine\Content\Internationalization\icudt53l\region\en_FJ.res	2016-10-01T11:34:48.719Z
Engine\Content\Internationalization\icudt53l\region\en_FK.res	2016-10-01T11:34:49.293Z
Engine\Content\Internationalization\icudt53l\region\en_FM.res	2016-10-01T11:34:48.719Z
Engine\Content\Internationalization\icudt53l\region\en_GB.res	2016-10-01T11:34:49.311Z
Engine\Content\Internationalization\icudt53l\region\en_GD.res	2016-10-01T11:34:48.719Z
Engine\Content\Internationalization\icudt53l\region\en_GG.res	2016-10-01T11:34:49.323Z
Engine\Content\Internationalization\icudt53l\region\en_GH.res	2016-10-01T11:34:48.719Z
Engine\Content\Internationalization\icudt53l\region\en_GI.res	2016-10-01T11:34:49.323Z
Engine\Content\Internationalization\icudt53l\region\en_GM.res	2016-10-01T11:34:48.719Z
Engine\Content\Internationalization\icudt53l\region\en_GY.res	2016-10-01T11:34:48.719Z
Engine\Content\Internationalization\icudt53l\region\en_HK.res	2016-10-01T11:34:49.257Z
Engine\Content\Internationalization\icudt53l\region\en_IE.res	2016-10-01T11:34:49.257Z
Engine\Content\Internationalization\icudt53l\region\en_IM.res	2016-10-01T11:34:49.323Z
Engine\Content\Internationalization\icudt53l\region\en_IN.res	2016-10-01T11:34:48.676Z
Engine\Content\Internationalization\icudt53l\region\en_IO.res	2016-10-01T11:34:49.257Z
Engine\Content\Internationalization\icudt53l\region\en_JE.res	2016-10-01T11:34:49.323Z
Engine\Content\Internationalization\icudt53l\region\en_JM.res	2016-10-01T11:34:49.371Z
Engine\Content\Internationalization\icudt53l\region\en_KE.res	2016-10-01T11:34:48.719Z
Engine\Content\Internationalization\icudt53l\region\en_KI.res	2016-10-01T11:34:48.719Z
Engine\Content\Internationalization\icudt53l\region\en_KN.res	2016-10-01T11:34:48.719Z
Engine\Content\Internationalization\icudt53l\region\en_KY.res	2016-10-01T11:34:49.202Z
Engine\Content\Internationalization\icudt53l\region\en_LC.res	2016-10-01T11:34:48.719Z
Engine\Content\Internationalization\icudt53l\region\en_LR.res	2016-10-01T11:34:48.719Z
Engine\Content\Internationalization\icudt53l\region\en_LS.res	2016-10-01T11:34:48.719Z
Engine\Content\Internationalization\icudt53l\region\en_MG.res	2016-10-01T11:34:48.719Z
Engine\Content\Internationalization\icudt53l\region\en_MO.res	2016-10-01T11:34:49.414Z
Engine\Content\Internationalization\icudt53l\region\en_MS.res	2016-10-01T11:34:49.045Z
Engine\Content\Internationalization\icudt53l\region\en_MT.res	2016-10-01T11:34:49.323Z
Engine\Content\Internationalization\icudt53l\region\en_MU.res	2016-10-01T11:34:48.719Z
Engine\Content\Internationalization\icudt53l\region\en_MW.res	2016-10-01T11:34:48.719Z
Engine\Content\Internationalization\icudt53l\region\en_NA.res	2016-10-01T11:34:49.371Z
Engine\Content\Internationalization\icudt53l\region\en_NF.res	2016-10-01T11:34:49.045Z
Engine\Content\Internationalization\icudt53l\region\en_NG.res	2016-10-01T11:34:48.719Z
Engine\Content\Internationalization\icudt53l\region\en_NH.res	2016-10-01T11:34:49.423Z
Engine\Content\Internationalization\icudt53l\region\en_NR.res	2016-10-01T11:34:49.045Z
Engine\Content\Internationalization\icudt53l\region\en_NU.res	2016-10-01T11:34:49.045Z
Engine\Content\Internationalization\icudt53l\region\en_NZ.res	2016-10-01T11:34:49.323Z
Engine\Content\Internationalization\icudt53l\region\en_PG.res	2016-10-01T11:34:48.719Z
Engine\Content\Internationalization\icudt53l\region\en_PH.res	2016-10-01T11:34:48.719Z
Engine\Content\Internationalization\icudt53l\region\en_PK.res	2016-10-01T11:34:48.676Z
Engine\Content\Internationalization\icudt53l\region\en_PN.res	2016-10-01T11:34:49.045Z
Engine\Content\Internationalization\icudt53l\region\en_PW.res	2016-10-01T11:34:49.202Z
Engine\Content\Internationalization\icudt53l\region\en_RH.res	2016-10-01T11:34:49.433Z
Engine\Content\Internationalization\icudt53l\region\en_RW.res	2016-10-01T11:34:49.045Z
Engine\Content\Internationalization\icudt53l\region\en_SB.res	2016-10-01T11:34:48.719Z
Engine\Content\Internationalization\icudt53l\region\en_SC.res	2016-10-01T11:34:48.719Z
Engine\Content\Internationalization\icudt53l\region\en_SD.res	2016-10-01T11:34:49.045Z
Engine\Content\Internationalization\icudt53l\region\en_SG.res	2016-10-01T11:34:49.443Z
Engine\Content\Internationalization\icudt53l\region\en_SH.res	2016-10-01T11:34:49.293Z
Engine\Content\Internationalization\icudt53l\region\en_SL.res	2016-10-01T11:34:48.719Z
Engine\Content\Internationalization\icudt53l\region\en_SS.res	2016-10-01T11:34:48.719Z
Engine\Content\Internationalization\icudt53l\region\en_SX.res	2016-10-01T11:34:49.045Z
Engine\Content\Internationalization\icudt53l\region\en_SZ.res	2016-10-01T11:34:48.719Z
Engine\Content\Internationalization\icudt53l\region\en_TC.res	2016-10-01T11:34:48.719Z
Engine\Content\Internationalization\icudt53l\region\en_TK.res	2016-10-01T11:34:49.045Z
Engine\Content\Internationalization\icudt53l\region\en_TO.res	2016-10-01T11:34:48.719Z
Engine\Content\Internationalization\icudt53l\region\en_TT.res	2016-10-01T11:34:49.371Z
Engine\Content\Internationalization\icudt53l\region\en_TV.res	2016-10-01T11:34:49.045Z
Engine\Content\Internationalization\icudt53l\region\en_TZ.res	2016-10-01T11:34:48.719Z
Engine\Content\Internationalization\icudt53l\region\en_UG.res	2016-10-01T11:34:48.719Z
Engine\Content\Internationalization\icudt53l\region\en_VC.res	2016-10-01T11:34:48.719Z
Engine\Content\Internationalization\icudt53l\region\en_VG.res	2016-10-01T11:34:49.453Z
Engine\Content\Internationalization\icudt53l\region\en_VU.res	2016-10-01T11:34:48.719Z
Engine\Content\Internationalization\icudt53l\region\en_WS.res	2016-10-01T11:34:48.719Z
Engine\Content\Internationalization\icudt53l\region\en_ZA.res	2016-10-01T11:34:48.719Z
Engine\Content\Internationalization\icudt53l\region\en_ZM.res	2016-10-01T11:34:48.719Z
Engine\Content\Internationalization\icudt53l\region\en_ZW.res	2016-10-01T11:34:49.371Z
Engine\Content\Internationalization\icudt53l\region\leet.res	2016-10-01T11:34:48.659Z
Engine\Content\Internationalization\icudt53l\region\pool.res	2016-10-01T11:33:41.081Z
Engine\Content\Internationalization\icudt53l\region\res_index.res	2016-10-01T11:33:24.846Z
Engine\Content\Internationalization\icudt53l\region\root.res	2016-10-01T11:34:50.447Z
Engine\Content\Internationalization\icudt53l\zone\en.res	2016-10-01T11:33:43.078Z
Engine\Content\Internationalization\icudt53l\zone\en_001.res	2016-10-01T11:33:43.096Z
Engine\Content\Internationalization\icudt53l\zone\en_150.res	2016-10-01T11:33:43.105Z
Engine\Content\Internationalization\icudt53l\zone\en_AG.res	2016-10-01T11:33:43.120Z
Engine\Content\Internationalization\icudt53l\zone\en_AI.res	2016-10-01T11:33:43.262Z
Engine\Content\Internationalization\icudt53l\zone\en_AU.res	2016-10-01T11:33:43.346Z
Engine\Content\Internationalization\icudt53l\zone\en_BB.res	2016-10-01T11:33:43.120Z
Engine\Content\Internationalization\icudt53l\zone\en_BE.res	2016-10-01T11:33:43.105Z
Engine\Content\Internationalization\icudt53l\zone\en_BM.res	2016-10-01T11:33:43.120Z
Engine\Content\Internationalization\icudt53l\zone\en_BS.res	2016-10-01T11:33:43.356Z
Engine\Content\Internationalization\icudt53l\zone\en_BW.res	2016-10-01T11:33:43.385Z
Engine\Content\Internationalization\icudt53l\zone\en_BZ.res	2016-10-01T11:33:43.356Z
Engine\Content\Internationalization\icudt53l\zone\en_CA.res	2016-10-01T11:33:43.395Z
Engine\Content\Internationalization\icudt53l\zone\en_CC.res	2016-10-01T11:33:43.262Z
Engine\Content\Internationalization\icudt53l\zone\en_CK.res	2016-10-01T11:33:43.262Z
Engine\Content\Internationalization\icudt53l\zone\en_CM.res	2016-10-01T11:33:43.405Z
Engine\Content\Internationalization\icudt53l\zone\en_CX.res	2016-10-01T11:33:43.262Z
Engine\Content\Internationalization\icudt53l\zone\en_DG.res	2016-10-01T11:33:43.552Z
Engine\Content\Internationalization\icudt53l\zone\en_DM.res	2016-10-01T11:33:43.120Z
Engine\Content\Internationalization\icudt53l\zone\en_ER.res	2016-10-01T11:33:43.569Z
Engine\Content\Internationalization\icudt53l\zone\en_FJ.res	2016-10-01T11:33:43.120Z
Engine\Content\Internationalization\icudt53l\zone\en_FK.res	2016-10-01T11:33:43.594Z
Engine\Content\Internationalization\icudt53l\zone\en_FM.res	2016-10-01T11:33:43.120Z
Engine\Content\Internationalization\icudt53l\zone\en_GB.res	2016-10-01T11:33:43.613Z
Engine\Content\Internationalization\icudt53l\zone\en_GD.res	2016-10-01T11:33:43.120Z
Engine\Content\Internationalization\icudt53l\zone\en_GG.res	2016-10-01T11:33:43.622Z
Engine\Content\Internationalization\icudt53l\zone\en_GH.res	2016-10-01T11:33:43.405Z
Engine\Content\Internationalization\icudt53l\zone\en_GI.res	2016-10-01T11:33:43.622Z
Engine\Content\Internationalization\icudt53l\zone\en_GM.res	2016-10-01T11:33:43.405Z
Engine\Content\Internationalization\icudt53l\zone\en_GU.res	2016-10-01T11:33:43.659Z
Engine\Content\Internationalization\icudt53l\zone\en_GY.res	2016-10-01T11:33:43.120Z
Engine\Content\Internationalization\icudt53l\zone\en_HK.res	2016-10-01T11:33:43.669Z
Engine\Content\Internationalization\icudt53l\zone\en_IE.res	2016-10-01T11:33:43.678Z
Engine\Content\Internationalization\icudt53l\zone\en_IM.res	2016-10-01T11:33:43.622Z
Engine\Content\Internationalization\icudt53l\zone\en_IN.res	2016-10-01T11:33:43.687Z
Engine\Content\Internationalization\icudt53l\zone\en_IO.res	2016-10-01T11:33:43.552Z
Engine\Content\Internationalization\icudt53l\zone\en_JE.res	2016-10-01T11:33:43.622Z
Engine\Content\Internationalization\icudt53l\zone\en_JM.res	2016-10-01T11:33:43.697Z
Engine\Content\Internationalization\icudt53l\zone\en_KE.res	2016-10-01T11:33:43.405Z
Engine\Content\Internationalization\icudt53l\zone\en_KI.res	2016-10-01T11:33:43.120Z
Engine\Content\Internationalization\icudt53l\zone\en_KN.res	2016-10-01T11:33:43.120Z
Engine\Content\Internationalization\icudt53l\zone\en_KY.res	2016-10-01T11:33:43.356Z
Engine\Content\Internationalization\icudt53l\zone\en_LC.res	2016-10-01T11:33:43.120Z
Engine\Content\Internationalization\icudt53l\zone\en_LR.res	2016-10-01T11:33:43.405Z
Engine\Content\Internationalization\icudt53l\zone\en_LS.res	2016-10-01T11:33:43.405Z
Engine\Content\Internationalization\icudt53l\zone\en_MG.res	2016-10-01T11:33:43.405Z
Engine\Content\Internationalization\icudt53l\zone\en_MH.res	2016-10-01T11:33:43.713Z
Engine\Content\Internationalization\icudt53l\zone\en_MO.res	2016-10-01T11:33:43.729Z
Engine\Content\Internationalization\icudt53l\zone\en_MP.res	2016-10-01T11:33:43.713Z
Engine\Content\Internationalization\icudt53l\zone\en_MS.res	2016-10-01T11:33:43.262Z
Engine\Content\Internationalization\icudt53l\zone\en_MT.res	2016-10-01T11:33:43.622Z
Engine\Content\Internationalization\icudt53l\zone\en_MU.res	2016-10-01T11:33:43.405Z
Engine\Content\Internationalization\icudt53l\zone\en_MW.res	2016-10-01T11:33:43.405Z
Engine\Content\Internationalization\icudt53l\zone\en_NA.res	2016-10-01T11:33:43.739Z
Engine\Content\Internationalization\icudt53l\zone\en_NF.res	2016-10-01T11:33:43.262Z
Engine\Content\Internationalization\icudt53l\zone\en_NG.res	2016-10-01T11:33:43.405Z
Engine\Content\Internationalization\icudt53l\zone\en_NH.res	2016-10-01T11:33:43.754Z
Engine\Content\Internationalization\icudt53l\zone\en_NR.res	2016-10-01T11:33:43.262Z
Engine\Content\Internationalization\icudt53l\zone\en_NU.res	2016-10-01T11:33:43.262Z
Engine\Content\Internationalization\icudt53l\zone\en_NZ.res	2016-10-01T11:33:43.763Z
Engine\Content\Internationalization\icudt53l\zone\en_PG.res	2016-10-01T11:33:43.120Z
Engine\Content\Internationalization\icudt53l\zone\en_PH.res	2016-10-01T11:33:43.120Z
Engine\Content\Internationalization\icudt53l\zone\en_PK.res	2016-10-01T11:33:43.774Z
Engine\Content\Internationalization\icudt53l\zone\en_PN.res	2016-10-01T11:33:43.262Z
Engine\Content\Internationalization\icudt53l\zone\en_PW.res	2016-10-01T11:33:43.356Z
Engine\Content\Internationalization\icudt53l\zone\en_RH.res	2016-10-01T11:33:43.783Z
Engine\Content\Internationalization\icudt53l\zone\en_RW.res	2016-10-01T11:33:43.569Z
Engine\Content\Internationalization\icudt53l\zone\en_SB.res	2016-10-01T11:33:43.120Z
Engine\Content\Internationalization\icudt53l\zone\en_SC.res	2016-10-01T11:33:43.120Z
Engine\Content\Internationalization\icudt53l\zone\en_SD.res	2016-10-01T11:33:43.569Z
Engine\Content\Internationalization\icudt53l\zone\en_SG.res	2016-10-01T11:33:43.792Z
Engine\Content\Internationalization\icudt53l\zone\en_SH.res	2016-10-01T11:33:43.594Z
Engine\Content\Internationalization\icudt53l\zone\en_SL.res	2016-10-01T11:33:43.405Z
Engine\Content\Internationalization\icudt53l\zone\en_SS.res	2016-10-01T11:33:43.405Z
Engine\Content\Internationalization\icudt53l\zone\en_SX.res	2016-10-01T11:33:43.262Z
Engine\Content\Internationalization\icudt53l\zone\en_SZ.res	2016-10-01T11:33:43.405Z
Engine\Content\Internationalization\icudt53l\zone\en_TC.res	2016-10-01T11:33:43.120Z
Engine\Content\Internationalization\icudt53l\zone\en_TK.res	2016-10-01T11:33:43.262Z
Engine\Content\Internationalization\icudt53l\zone\en_TO.res	2016-10-01T11:33:43.120Z
Engine\Content\Internationalization\icudt53l\zone\en_TT.res	2016-10-01T11:33:43.697Z
Engine\Content\Internationalization\icudt53l\zone\en_TV.res	2016-10-01T11:33:43.262Z
Engine\Content\Internationalization\icudt53l\zone\en_TZ.res	2016-10-01T11:33:43.405Z
Engine\Content\Internationalization\icudt53l\zone\en_UG.res	2016-10-01T11:33:43.405Z
Engine\Content\Internationalization\icudt53l\zone\en_VC.res	2016-10-01T11:33:43.120Z
Engine\Content\Internationalization\icudt53l\zone\en_VG.res	2016-10-01T11:33:43.803Z
Engine\Content\Internationalization\icudt53l\zone\en_VU.res	2016-10-01T11:33:43.120Z
Engine\Content\Internationalization\icudt53l\zone\en_WS.res	2016-10-01T11:33:43.120Z
Engine\Content\Internationalization\icudt53l\zone\en_ZA.res	2016-10-01T11:33:43.405Z
Engine\Content\Internationalization\icudt53l\zone\en_ZM.res	2016-10-01T11:33:43.405Z
Engine\Content\Internationalization\icudt53l\zone\en_ZW.res	2016-10-01T11:33:43.739Z
Engine\Content\Internationalization\icudt53l\zone\leet.res	2016-10-01T11:33:43.078Z
Engine\Content\Internationalization\icudt53l\zone\pool.res	2016-10-01T11:33:24.252Z
Engine\Content\Internationalization\icudt53l\zone\res_index.res	2016-10-01T11:33:24.858Z
Engine\Content\Internationalization\icudt53l\zone\root.res	2016-10-01T11:33:24.295Z
Engine\Binaries\ThirdParty\ICU\ICU.tps	2016-10-01T11:25:14.509Z
Engine\Binaries\ThirdParty\ICU\icu4c-53_1\Win64\VS2013\icudt53.dll	2016-10-01T11:35:33.881Z
Engine\Binaries\ThirdParty\ICU\icu4c-53_1\Win64\VS2013\icudtd53.dll	2016-10-01T11:35:33.893Z
Engine\Binaries\ThirdParty\ICU\icu4c-53_1\Win64\VS2013\icuin53.dll	2016-10-01T11:40:03.107Z
Engine\Binaries\ThirdParty\ICU\icu4c-53_1\Win64\VS2013\icuind53.dll	2016-10-01T11:33:10.131Z
Engine\Binaries\ThirdParty\ICU\icu4c-53_1\Win64\VS2013\icuio53.dll	2016-10-01T11:38:34.536Z
Engine\Binaries\ThirdParty\ICU\icu4c-53_1\Win64\VS2013\icuiod53.dll	2016-10-01T11:38:34.554Z
Engine\Binaries\ThirdParty\ICU\icu4c-53_1\Win64\VS2013\icule53.dll	2016-10-01T11:38:34.574Z
Engine\Binaries\ThirdParty\ICU\icu4c-53_1\Win64\VS2013\iculed53.dll	2016-10-01T11:42:58.279Z
Engine\Binaries\ThirdParty\ICU\icu4c-53_1\Win64\VS2013\iculx53.dll	2016-10-01T11:38:34.589Z
Engine\Binaries\ThirdParty\ICU\icu4c-53_1\Win64\VS2013\iculxd53.dll	2016-10-01T11:38:34.607Z
Engine\Binaries\ThirdParty\ICU\icu4c-53_1\Win64\VS2013\icutu53.dll	2016-10-01T11:40:04.405Z
Engine\Binaries\ThirdParty\ICU\icu4c-53_1\Win64\VS2013\icutud53.dll	2016-10-01T11:40:04.428Z
Engine\Binaries\ThirdParty\ICU\icu4c-53_1\Win64\VS2013\icuuc53.dll	2016-10-01T11:41:26.182Z
Engine\Binaries\ThirdParty\ICU\icu4c-53_1\Win64\VS2013\icuucd53.dll	2016-10-01T11:33:25.308Z
Engine\Binaries\ThirdParty\ICU\icu4c-53_1\Win64\VS2015\icudt53.dll	2016-10-01T11:38:25.461Z
Engine\Binaries\ThirdParty\ICU\icu4c-53_1\Win64\VS2015\icudtd53.dll	2016-10-01T11:42:40.433Z
Engine\Binaries\ThirdParty\ICU\icu4c-53_1\Win64\VS2015\icuin53.dll	2016-10-01T11:35:00.643Z
Engine\Binaries\ThirdParty\ICU\icu4c-53_1\Win64\VS2015\icuind53.dll	2016-10-01T11:39:27.479Z
Engine\Binaries\ThirdParty\ICU\icu4c-53_1\Win64\VS2015\icuio53.dll	2016-10-01T11:42:40.446Z
Engine\Binaries\ThirdParty\ICU\icu4c-53_1\Win64\VS2015\icuiod53.dll	2016-10-01T11:42:40.463Z
Engine\Binaries\ThirdParty\ICU\icu4c-53_1\Win64\VS2015\icule53.dll	2016-10-01T11:42:40.484Z
Engine\Binaries\ThirdParty\ICU\icu4c-53_1\Win64\VS2015\iculed53.dll	2016-10-01T11:40:24.255Z
Engine\Binaries\ThirdParty\ICU\icu4c-53_1\Win64\VS2015\iculx53.dll	2016-10-01T11:42:40.495Z
Engine\Binaries\ThirdParty\ICU\icu4c-53_1\Win64\VS2015\iculxd53.dll	2016-10-01T11:42:40.509Z
Engine\Binaries\ThirdParty\ICU\icu4c-53_1\Win64\VS2015\icutu53.dll	2016-10-01T11:38:17.161Z
Engine\Binaries\ThirdParty\ICU\icu4c-53_1\Win64\VS2015\icutud53.dll	2016-10-01T11:36:49.059Z
Engine\Binaries\ThirdParty\ICU\icu4c-53_1\Win64\VS2015\icuuc53.dll	2016-10-01T11:41:04.515Z
Engine\Binaries\ThirdParty\ICU\icu4c-53_1\Win64\VS2015\icuucd53.dll	2016-10-01T11:39:39.511Z
Engine\Binaries\ThirdParty\OpenSSL\Win64\VS2013\libeay32.dll	2016-10-01T11:39:45.045Z
Engine\Binaries\ThirdParty\OpenSSL\Win64\VS2013\ssleay32.dll	2016-10-01T11:39:45.137Z
Engine\Binaries\ThirdParty\OpenSSL\Win64\VS2015\libeay32.dll	2016-10-01T11:41:10.735Z
Engine\Binaries\ThirdParty\OpenSSL\Win64\VS2015\ssleay32.dll	2016-10-01T11:38:56.726Z
Engine\Programs\CrashReportClient\Config\DefaultEngine.ini	2016-10-04T22:19:17.170Z
